2 Módulo II | Curso Introdutório de Análise de Dados em R utilizando Tidyverse
…
Uma vez lido o arquivo, podemos inspecioná-lo chamando o objeto criado, ou clicando no nome do objeto em nosso environment.

tb_ibama

## # A tibble: 100,000 x 17
##        X1 TIPO_GF STATUS_GF UF_REMETENTE MUNICÍPIO_REMET… TIPO_DESTINO CEPROF_DESTINAT… UF_DESTINATÁRIO MUNICÍPIO_DESTI…
##     <dbl> <chr>   <chr>     <chr>        <chr>            <chr>        <chr>            <chr>           <chr>           
##  1  40644 GF1     RECEBIDO  PA           Santarém         EMPREENDIME… XXXX             PA              São Miguel do G…
##  2 153879 GF1     RECEBIDO  PA           Alenquer         EMPREENDIME… XXXX             PA              Tailândia       
##  3  66847 GF1     RECEBIDO  PA           Rurópolis        EMPREENDIME… XXXX             PA              Rurópolis       
##  4 319645 GF3I    RECEBIDO  PA           Tucuruí          EMPREENDIME… <NA>             BA              Macaúbas        
##  5  19190 GF3     RECEBIDO  PA           Paragominas      EMPREENDIME… XXXX             PA              Paragominas     
##  6 317951 GF2     RECEBIDO  PA           Breu Branco      EMPREENDIME… XXXX             PA              Breu Branco     
##  7 201275 GF3I    RECEBIDO  PA           Benevides        EMPREENDIME… <NA>             BA              Vera Cruz       
##  8 275969 GF3I    RECEBIDO  PA           Tucuruí          EMPREENDIME… <NA>             BA              Feira de Santana
##  9 158094 GF3I    RECEBIDO  PA           Moju             EMPREENDIME… <NA>             SE              Aracaju         
## 10 181537 GF1     RECEBIDO  PA           Santarém         EMPREENDIME… XXXX             PA              Santa Bárbara d…
## # … with 99,990 more rows, and 8 more variables: N_AUTORIZAÇÃO <chr>, PROCESSO <chr>, EMISSAO <int>,
## #   NOME_CIENTÍFICO <chr>, PRODUTO <chr>, VOLUME <dbl>, UNID <chr>, PRECO_TOTAL <dbl>
…
DICA: No base R, isso seria equivalente ao código: tb_ibama[tb_ibama$TIPO_DESTINO == "CONSUMIDOR_FINAL" & tb_ibama$MUNICÌPIO_DESTINATÁRIO == "Brasil Novo", ].

2.2.2 Ordenando linhas com arrange()

arrange() funciona de modo semelhante a filter, mas ao invés de filtrar e selecionar linhas, ele apenas as reordena de acordo com alguma condição que passamos. Essa função recebe um data.frame e um conjunto de column names pelo qual vai ordenar. Se você fornecer mais de um nome de coluna, cada coluna adicional passada será usada como critério de desempate.

arrange(tb_ibama, UF_DESTINATÁRIO, MUNICÍPIO_DESTINATÁRIO, VOLUME)

## # A tibble: 100,000 x 16
##    TIPO_GF STATUS_GF UF_REMETENTE MUNICÍPIO_REMET… TIPO_DESTINO CEPROF_DESTINAT… UF_DESTINATÁRIO MUNICÍPIO_DESTI…
##    <chr>   <chr>     <chr>        <chr>            <chr>        <chr>            <chr>           <chr>           
##  1 GF3I    RECEBIDO  PA           Tomé-Açu         EMPREENDIME… <NA>             AL              Arapiraca       
##  2 GF3I    RECEBIDO  PA           Tomé-Açu         EMPREENDIME… <NA>             AL              Arapiraca       
##  3 GF3I    RECEBIDO  PA           Tomé-Açu         EMPREENDIME… <NA>             AL              Arapiraca       
##  4 GF3I    RECEBIDO  PA           Paragominas      EMPREENDIME… <NA>             AL              Arapiraca       
##  5 GF3I    RECEBIDO  PA           Tomé-Açu         EMPREENDIME… <NA>             AL              Arapiraca       
##  6 GF3I    RECEBIDO  PA           Ipixuna do Pará  EMPREENDIME… <NA>             AL              Arapiraca       
##  7 GF3I    RECEBIDO  PA           Rondon do Pará   EMPREENDIME… <NA>             AL              Arapiraca       
##  8 GF3I    RECEBIDO  PA           Novo Repartimen… EMPREENDIME… <NA>             AL              Arapiraca       
##  9 GF3I    RECEBIDO  PA           Rondon do Pará   EMPREENDIME… <NA>             AL              Arapiraca       
## 10 GF3I    RECEBIDO  PA           Tomé-Açu         EMPREENDIME… <NA>             AL              Arapiraca       
## # … with 99,990 more rows, and 8 more variables: N_AUTORIZAÇÃO <chr>, PROCESSO <chr>, EMISSAO <int>,
## #   NOME_CIENTÍFICO <chr>, PRODUTO <chr>, VOLUME <dbl>, UNID <chr>, PRECO_TOTAL <dbl>

Se quiser ordenar de forma decrescente, utilize a função desc(nome_da_coluna) dentro de arrange(). Isso seria particularmente interessante se você quisesse ordenar os dados na coluna final do maior volume para o maior.

2.2.3 Selecionando colunas com select()

Geralmente trabalhamos com grandes datasets com muitas colunas, mas somente algumas poucas colunas serão de nosso interesse. select() nos permite rapidamente focar num subconjunto dos dados. O melhor é que podemos utilizar operações - que normalmente só funcionam com as posições das colunas - direto nos nomes das variáveis.

# Seleção por nome
select(tb_ibama, UF_REMETENTE, MUNICÍPIO_REMETENTE, TIPO_DESTINO)

## # A tibble: 100,000 x 3
##    UF_REMETENTE MUNICÍPIO_REMETENTE TIPO_DESTINO         
##    <chr>        <chr>               <chr>                
##  1 PA           Santarém            EMPREENDIMENTO_CEPROF
##  2 PA           Alenquer            EMPREENDIMENTO_CEPROF
##  3 PA           Rurópolis           EMPREENDIMENTO_CEPROF
##  4 PA           Tucuruí             EMPREENDIMENTO_IBAMA 
##  5 PA           Paragominas         EMPREENDIMENTO_CEPROF
##  6 PA           Breu Branco         EMPREENDIMENTO_CEPROF
##  7 PA           Benevides           EMPREENDIMENTO_IBAMA 
##  8 PA           Tucuruí             EMPREENDIMENTO_IBAMA 
##  9 PA           Moju                EMPREENDIMENTO_IBAMA 
## 10 PA           Santarém            EMPREENDIMENTO_CEPROF
## # … with 99,990 more rows

# Selecionando todas as colunas num intervalo de colunas (inclusive)
select(tb_ibama, UF_REMETENTE:TIPO_DESTINO)

## # A tibble: 100,000 x 3
##    UF_REMETENTE MUNICÍPIO_REMETENTE TIPO_DESTINO         
##    <chr>        <chr>               <chr>                
##  1 PA           Santarém            EMPREENDIMENTO_CEPROF
##  2 PA           Alenquer            EMPREENDIMENTO_CEPROF
##  3 PA           Rurópolis           EMPREENDIMENTO_CEPROF
##  4 PA           Tucuruí             EMPREENDIMENTO_IBAMA 
##  5 PA           Paragominas         EMPREENDIMENTO_CEPROF
##  6 PA           Breu Branco         EMPREENDIMENTO_CEPROF
##  7 PA           Benevides           EMPREENDIMENTO_IBAMA 
##  8 PA           Tucuruí             EMPREENDIMENTO_IBAMA 
##  9 PA           Moju                EMPREENDIMENTO_IBAMA 
## 10 PA           Santarém            EMPREENDIMENTO_CEPROF
## # … with 99,990 more rows

# Selecionando todas as clunas exceto aqueles em um intervalo (inclusive)
select(tb_ibama, -(UF_REMETENTE:TIPO_DESTINO))

## # A tibble: 100,000 x 13
##    TIPO_GF STATUS_GF CEPROF_DESTINAT… UF_DESTINATÁRIO MUNICÍPIO_DESTI… N_AUTORIZAÇÃO PROCESSO EMISSAO NOME_CIENTÍFICO
##    <chr>   <chr>     <chr>            <chr>           <chr>            <chr>         <chr>      <int> <chr>          
##  1 GF1     RECEBIDO  XXXX             PA              São Miguel do G… 272866/2016   2015/00…   42752 Chrysophyllum …
##  2 GF1     RECEBIDO  XXXX             PA              Tailândia        272870/2016   2014/00…   42789 Couratari taua…
##  3 GF1     RECEBIDO  XXXX             PA              Rurópolis        272887/2016   2013/00…   42762 Manilkara hube…
##  4 GF3I    RECEBIDO  <NA>             BA              Macaúbas         <NA>          <NA>       42900 Alexa grandifl…
##  5 GF3     RECEBIDO  XXXX             PA              Paragominas      <NA>          <NA>       42746 Couratari stel…
##  6 GF2     RECEBIDO  XXXX             PA              Breu Branco      3108/2016     2009/10…   42899 Eucalyptus pel…
##  7 GF3I    RECEBIDO  <NA>             BA              Vera Cruz        <NA>          <NA>       42808 Manilkara hube…
##  8 GF3I    RECEBIDO  <NA>             BA              Feira de Santana <NA>          <NA>       42860 Sclerolobium t…
##  9 GF3I    RECEBIDO  <NA>             SE              Aracaju          <NA>          <NA>       42790 Hymenolobium e…
## 10 GF1     RECEBIDO  XXXX             PA              Santa Bárbara d… 272861/2016   2015/00…   42798 Hymenaea courb…
## # … with 99,990 more rows, and 4 more variables: PRODUTO <chr>, VOLUME <dbl>, UNID <chr>, PRECO_TOTAL <dbl>

DICA: Existem helper functions que podemos usar dentro de select(). São funções que lembram o funcionamento de uma regular expression (conceito que veremos no Módulo 3) para identificarmos nomes de colunas que atendem a determinado critério. São muito úteis com grandes datasets: starts_with(), ends_with(), matches() e contains().

Vamos por exemplo selecionar todas as colunas que começam com UF:

select(tb_ibama, starts_with("UF"))

## # A tibble: 100,000 x 2
##    UF_REMETENTE UF_DESTINATÁRIO
##    <chr>        <chr>          
##  1 PA           PA             
##  2 PA           PA             
##  3 PA           PA             
##  4 PA           BA             
##  5 PA           PA             
##  6 PA           PA             
##  7 PA           BA             
##  8 PA           BA             
##  9 PA           SE             
## 10 PA           PA             
## # … with 99,990 more rows

select() pode ser usada inclusive para renomear variáveis:

select(tb_ibama, MUN_REMETENTE = MUNICÍPIO_REMETENTE)

## # A tibble: 100,000 x 1
##    MUN_REMETENTE
##    <chr>        
##  1 Santarém     
##  2 Alenquer     
##  3 Rurópolis    
##  4 Tucuruí      
##  5 Paragominas  
##  6 Breu Branco  
##  7 Benevides    
##  8 Tucuruí      
##  9 Moju         
## 10 Santarém     
## # … with 99,990 more rows

A nova variável será chamada MUN_REMETENTE e receberá toda a informação da original MUNICÍPIO_REMETENTE.

No entanto, select() “abandona” todas as demais variáveis quando você faz uma renomeação. O melhor então é usar rename():

rename(tb_ibama, MUN_REMETENTE = MUNICÍPIO_REMETENTE)

## # A tibble: 100,000 x 16
##    TIPO_GF STATUS_GF UF_REMETENTE MUN_REMETENTE TIPO_DESTINO CEPROF_DESTINAT… UF_DESTINATÁRIO MUNICÍPIO_DESTI…
##    <chr>   <chr>     <chr>        <chr>         <chr>        <chr>            <chr>           <chr>           
##  1 GF1     RECEBIDO  PA           Santarém      EMPREENDIME… XXXX             PA              São Miguel do G…
##  2 GF1     RECEBIDO  PA           Alenquer      EMPREENDIME… XXXX             PA              Tailândia       
##  3 GF1     RECEBIDO  PA           Rurópolis     EMPREENDIME… XXXX             PA              Rurópolis       
##  4 GF3I    RECEBIDO  PA           Tucuruí       EMPREENDIME… <NA>             BA              Macaúbas        
##  5 GF3     RECEBIDO  PA           Paragominas   EMPREENDIME… XXXX             PA              Paragominas     
##  6 GF2     RECEBIDO  PA           Breu Branco   EMPREENDIME… XXXX             PA              Breu Branco     
##  7 GF3I    RECEBIDO  PA           Benevides     EMPREENDIME… <NA>             BA              Vera Cruz       
##  8 GF3I    RECEBIDO  PA           Tucuruí       EMPREENDIME… <NA>             BA              Feira de Santana
##  9 GF3I    RECEBIDO  PA           Moju          EMPREENDIME… <NA>             SE              Aracaju         
## 10 GF1     RECEBIDO  PA           Santarém      EMPREENDIME… XXXX             PA              Santa Bárbara d…
## # … with 99,990 more rows, and 8 more variables: N_AUTORIZAÇÃO <chr>, PROCESSO <chr>, EMISSAO <int>,
## #   NOME_CIENTÍFICO <chr>, PRODUTO <chr>, VOLUME <dbl>, UNID <chr>, PRECO_TOTAL <dbl>

2.2.4 Adicionando novas colunas com mutate()

Além de selecionar conjuntos de colunas existentes, é geralmente útil adicionar novas colunas que são funções de colunas já presentes no tibble/dataframe. Veja um exemplo com mutate(), onde queremos calcular o preço por unidade de volume:

mutate(tb_ibama,
  preco_unidade = PRECO_TOTAL / VOLUME,
)

## # A tibble: 100,000 x 17
##    TIPO_GF STATUS_GF UF_REMETENTE MUNICÍPIO_REMET… TIPO_DESTINO CEPROF_DESTINAT… UF_DESTINATÁRIO MUNICÍPIO_DESTI…
##    <chr>   <chr>     <chr>        <chr>            <chr>        <chr>            <chr>           <chr>           
##  1 GF1     RECEBIDO  PA           Santarém         EMPREENDIME… XXXX             PA              São Miguel do G…
##  2 GF1     RECEBIDO  PA           Alenquer         EMPREENDIME… XXXX             PA              Tailândia       
##  3 GF1     RECEBIDO  PA           Rurópolis        EMPREENDIME… XXXX             PA              Rurópolis       
##  4 GF3I    RECEBIDO  PA           Tucuruí          EMPREENDIME… <NA>             BA              Macaúbas        
##  5 GF3     RECEBIDO  PA           Paragominas      EMPREENDIME… XXXX             PA              Paragominas     
##  6 GF2     RECEBIDO  PA           Breu Branco      EMPREENDIME… XXXX             PA              Breu Branco     
##  7 GF3I    RECEBIDO  PA           Benevides        EMPREENDIME… <NA>             BA              Vera Cruz       
##  8 GF3I    RECEBIDO  PA           Tucuruí          EMPREENDIME… <NA>             BA              Feira de Santana
##  9 GF3I    RECEBIDO  PA           Moju             EMPREENDIME… <NA>             SE              Aracaju         
## 10 GF1     RECEBIDO  PA           Santarém         EMPREENDIME… XXXX             PA              Santa Bárbara d…
## # … with 99,990 more rows, and 9 more variables: N_AUTORIZAÇÃO <chr>, PROCESSO <chr>, EMISSAO <int>,
## #   NOME_CIENTÍFICO <chr>, PRODUTO <chr>, VOLUME <dbl>, UNID <chr>, PRECO_TOTAL <dbl>, preco_unidade <dbl>
mutate() nos permite ainda nos referir a colunas que acabamos de criar no mesmo comando. Vamos salvar esta alteração em um novo tibble, chamado tb_ibama2

tb_ibama2 <- mutate(tb_ibama,
  preco_unidade = PRECO_TOTAL / VOLUME,
  preco_unidade_vezes_1000 = preco_unidade * 1000
)

Se só nos interessarem as novas variáveis, usaríamos transmute():

transmute(tb_ibama,
  preco_unidade = PRECO_TOTAL / VOLUME,
  preco_unidade_vezes_1000 = preco_unidade * 1000
)

## # A tibble: 100,000 x 2
##    preco_unidade preco_unidade_vezes_1000
##            <dbl>                    <dbl>
##  1         167.                   166928.
##  2         167.                   166869.
##  3         180.                   180123.
##  4         492.                   492249.
##  5         167.                   167010.
##  6          68.9                   68890.
##  7         356.                   356196.
##  8         356.                   356076.
##  9         796.                   796081.
## 10         207.                   207400.
## # … with 99,990 more rows
…
Geralmente, no contexto de análise de dados com dplyr, utilizamos case_when() dentro de uma função mutate() ou transmute (que traz a apenas a nova coluna criada), uma vez que pretendemos alterar as entradas de uma coluna, alterando, portanto, a própria coluna.

No tibble tb_ibama2, amos criar uma nova coluna de caracteres chamada nivel_preco, em que classificaremos um preco em: alto se preco_unidade > 500; baixo se preco_unidade < 300 ou razoavel nos demais casos:

transmute(tb_ibama2,
       nivel_preco =
         case_when(
           preco_unidade > 500 ~ "alto",
           preco_unidade < 300 ~ "baixo",
           TRUE ~ "razoável"
         ))

## # A tibble: 100,000 x 1
##    nivel_preco
##    <chr>      
##  1 baixo      
##  2 baixo      
##  3 baixo      
##  4 razoável   
##  5 baixo      
##  6 baixo      
##  7 razoável   
##  8 razoável   
##  9 alto       
## 10 baixo      
## # … with 99,990 more rows
…
n_distinct(x): número de valores únicos em x;

first(x), last(x) e nth(x, n) funcionam de forma similar a x[1], x[length(x)] e x[n], mas nos dão maior controle sobre resultado caso algum valor seja missing.

Veja um exemplo em que usamos estas funções para encontrar o número de produtos distintos que seguem para cada possível destino e quantidade total de produtos que o Município recebe:

destinos <- group_by(tb_ibama2, MUNICÍPIO_DESTINATÁRIO)
summarise(destinos,
  n_produtos_distintos = n_distinct(PRODUTO),
  qte_total_produtos = n()
)

## `summarise()` ungrouping output (override with `.groups` argument)

## # A tibble: 1,452 x 3
##    MUNICÍPIO_DESTINATÁRIO n_produtos_distintos qte_total_produtos
##    <chr>                                 <int>              <int>
##  1 Abaetetuba                                1                  1
##  2 Abaiara                                   5                 15
##  3 Açailândia                                6                 28
##  4 Acajutiba                                 1                  1
##  5 Acaraú                                    3                  3
##  6 Acopiara                                  4                 12
##  7 Açu                                       9                 94
##  8 Adamantina                                1                  1
##  9 Afogados da Ingazeira                     8                 29
## 10 Afuá                                      3                 59
## # … with 1,442 more rows

Quando agrupamos mais de uma variável, cada summarise() que executamos, elimina um nível do agrupamento.

Exemplo:

by_uf_mun_dest <- group_by(tb_ibama2, UF_DESTINATÁRIO, MUNICÍPIO_DESTINATÁRIO)
(qte_produtos_por_mun_dest   <- summarise(by_uf_mun_dest, qte = n()))

## `summarise()` regrouping output by 'UF_DESTINATÁRIO' (override with `.groups` argument)

## # A tibble: 1,480 x 3
## # Groups:   UF_DESTINATÁRIO [23]
##    UF_DESTINATÁRIO MUNICÍPIO_DESTINATÁRIO   qte
##    <chr>           <chr>                  <int>
##  1 AL              Arapiraca                633
##  2 AL              Atalaia                   44
##  3 AL              Barra de São Miguel        1
##  4 AL              Batalha                   14
##  5 AL              Cacimbinhas                5
##  6 AL              Cajueiro                  10
##  7 AL              Campestre                  2
##  8 AL              Campo Grande               4
##  9 AL              Canapi                    16
## 10 AL              Capela                     8
## # … with 1,470 more rows

# notar que da descrição "Groups:" do tibble, ou seja, o número de variáveis de agrupamento vai diminuindo.

(qte_produtos_por_uf_dest   <- summarise(qte_produtos_por_mun_dest, qte = sum(qte)))

## `summarise()` ungrouping output (override with `.groups` argument)

## # A tibble: 23 x 2
##    UF_DESTINATÁRIO   qte
##    <chr>           <int>
##  1 AL               2025
##  2 AM                  1
##  3 BA               4458
##  4 CE               3172
##  5 DF                 24
##  6 ES                269
##  7 GO                418
##  8 MA                736
##  9 MG               1573
## 10 MS                 49
## # … with 13 more rows

2.2.7.2 Cuidados com os nomes de variáveis

Uma das melhores características do pacote dplyr é que podemos nos referir as variáveis de um tibble ou dataframe como se fossem variáveis regulares (aquelas que estão no Global Environment). No entanto, a sintaxe de referência para nomes de colunas escondem algumas diferenças entre os verbos. Por exemplo, um nome ou valor de coluna passado para select() não tem o mesmo significado do que teria em mutate().

Veja formas equivalentes do ponto de vista de dplyr:

select(tb_ibama2, TIPO_GF)

## # A tibble: 100,000 x 1
##    TIPO_GF
##    <chr>  
##  1 GF1    
##  2 GF1    
##  3 GF1    
##  4 GF3I   
##  5 GF3    
##  6 GF2    
##  7 GF3I   
##  8 GF3I   
##  9 GF3I   
## 10 GF1    
## # … with 99,990 more rows

select(tb_ibama2, 1)

## # A tibble: 100,000 x 1
##    TIPO_GF
##    <chr>  
##  1 GF1    
##  2 GF1    
##  3 GF1    
##  4 GF3I   
##  5 GF3    
##  6 GF2    
##  7 GF3I   
##  8 GF3I   
##  9 GF3I   
## 10 GF1    
## # … with 99,990 more rows
…
