3 Módulo III | Introdução à Análise de Dados em R utilizando Tidyverse
…
Mutating joins nos permitem combinar variáveis de múltiplas tabelas. Vamos utilizar alguns datasets do pacote nycflights13 que contempla os dados de 336.776 voos (tibble flights), as condições climáticas (tibble weather) e as aeronaves (tibble planes) que pousaram e decolaram de 3 aeroportos (tibble airports) de Nova York em 2013. Os dados são oriundos do US Bureau of Transportation Statistics.

Inicialmente usaremos o datase flights. Vamos separar algumas colunas do tibble original em outro. Depois tentaremos juntar os dois com base no nome da cia aérea.

library("nycflights13")
# Drop unimportant variables so it's easier to understand the join results.
flights2 <- flights %>% select(year:day, hour, origin, dest, tailnum, carrier)

flights2 %>% 
  left_join(airlines)

## Joining with `by = join_by(carrier)`

## # A tibble: 336,776 × 9
##     year month   day  hour origin dest  tailnum carrier name                    
##    <int> <int> <int> <dbl> <chr>  <chr> <chr>   <chr>   <chr>                   
##  1  2013     1     1     5 EWR    IAH   N14228  UA      United Air Lines Inc.   
##  2  2013     1     1     5 LGA    IAH   N24211  UA      United Air Lines Inc.   
##  3  2013     1     1     5 JFK    MIA   N619AA  AA      American Airlines Inc.  
##  4  2013     1     1     5 JFK    BQN   N804JB  B6      JetBlue Airways         
##  5  2013     1     1     6 LGA    ATL   N668DN  DL      Delta Air Lines Inc.    
##  6  2013     1     1     5 EWR    ORD   N39463  UA      United Air Lines Inc.   
##  7  2013     1     1     6 EWR    FLL   N516JB  B6      JetBlue Airways         
##  8  2013     1     1     6 LGA    IAD   N829AS  EV      ExpressJet Airlines Inc.
##  9  2013     1     1     6 JFK    MCO   N593JB  B6      JetBlue Airways         
## 10  2013     1     1     6 LGA    ORD   N3ALAA  AA      American Airlines Inc.  
## # ℹ 336,766 more rows

3.2.1.1 Controlando como as tabelas sofrem match nos mutating joins

Juntamente com os argumentos x e y, cada mutating join recebe também um argumento by que é utilizado como índice para fazer o matching entre as tabelas. Há algumas maneiras de especificar esse argumento.
Vejamos exemplos de como especificar o parâmetro by, utilizando algumas tabelas de nycflights13.

1ª forma) NULL: o default. dplyr vai usar todas as variáveis que aparecerem nas duas tabelas. Chamamos isso de natural join. No exeplo a seguir, as tabelas flights e wheather serão “juntadas” com base nas variáveis comuns: year, month, day, hour e origin.

flights2 %>% left_join(weather)

## Joining with `by = join_by(year, month, day, hour, origin)`

## # A tibble: 336,776 × 18
##     year month   day  hour origin dest  tailnum carrier  temp  dewp humid wind_dir wind_speed wind_gust precip
##    <int> <int> <int> <dbl> <chr>  <chr> <chr>   <chr>   <dbl> <dbl> <dbl>    <dbl>      <dbl>     <dbl>  <dbl>
##  1  2013     1     1     5 EWR    IAH   N14228  UA       39.0  28.0  64.4      260       12.7      NA        0
##  2  2013     1     1     5 LGA    IAH   N24211  UA       39.9  25.0  54.8      250       15.0      21.9      0
##  3  2013     1     1     5 JFK    MIA   N619AA  AA       39.0  27.0  61.6      260       15.0      NA        0
##  4  2013     1     1     5 JFK    BQN   N804JB  B6       39.0  27.0  61.6      260       15.0      NA        0
##  5  2013     1     1     6 LGA    ATL   N668DN  DL       39.9  25.0  54.8      260       16.1      23.0      0
##  6  2013     1     1     5 EWR    ORD   N39463  UA       39.0  28.0  64.4      260       12.7      NA        0
##  7  2013     1     1     6 EWR    FLL   N516JB  B6       37.9  28.0  67.2      240       11.5      NA        0
##  8  2013     1     1     6 LGA    IAD   N829AS  EV       39.9  25.0  54.8      260       16.1      23.0      0
##  9  2013     1     1     6 JFK    MCO   N593JB  B6       37.9  27.0  64.3      260       13.8      NA        0
## 10  2013     1     1     6 LGA    ORD   N3ALAA  AA       39.9  25.0  54.8      260       16.1      23.0      0
## # ℹ 336,766 more rows
## # ℹ 3 more variables: pressure <dbl>, visib <dbl>, time_hour <dttm>

2ª forma) by = "var1" ou by = c("var1", "var2", "var3"): um vetor de caracteres. Opera como se fosse um natural join, mas utiliza somente algumas das variáveis comuns. Por exemplo, flights e planes possuem uma variável year, mas elas significam coisas diferentes em cada tibbe/dataframe. Então, queremos especificar uma coluna que sabemos que significa a mesma coisa em ambos os tibbles e que possa servir de índice para o matching. Vamos usar tailnum que é o número (de cauda) do avião.

flights2 %>% left_join(planes, by = "tailnum")

## # A tibble: 336,776 × 16
##    year.x month   day  hour origin dest  tailnum carrier year.y type      manufacturer model engines seats speed
##     <int> <int> <int> <dbl> <chr>  <chr> <chr>   <chr>    <int> <chr>     <chr>        <chr>   <int> <int> <int>
##  1   2013     1     1     5 EWR    IAH   N14228  UA        1999 Fixed wi… BOEING       737-…       2   149    NA
##  2   2013     1     1     5 LGA    IAH   N24211  UA        1998 Fixed wi… BOEING       737-…       2   149    NA
##  3   2013     1     1     5 JFK    MIA   N619AA  AA        1990 Fixed wi… BOEING       757-…       2   178    NA
##  4   2013     1     1     5 JFK    BQN   N804JB  B6        2012 Fixed wi… AIRBUS       A320…       2   200    NA
##  5   2013     1     1     6 LGA    ATL   N668DN  DL        1991 Fixed wi… BOEING       757-…       2   178    NA
##  6   2013     1     1     5 EWR    ORD   N39463  UA        2012 Fixed wi… BOEING       737-…       2   191    NA
##  7   2013     1     1     6 EWR    FLL   N516JB  B6        2000 Fixed wi… AIRBUS INDU… A320…       2   200    NA
##  8   2013     1     1     6 LGA    IAD   N829AS  EV        1998 Fixed wi… CANADAIR     CL-6…       2    55    NA
##  9   2013     1     1     6 JFK    MCO   N593JB  B6        2004 Fixed wi… AIRBUS       A320…       2   200    NA
## 10   2013     1     1     6 LGA    ORD   N3ALAA  AA          NA <NA>      <NA>         <NA>       NA    NA    NA
## # ℹ 336,766 more rows
## # ℹ 1 more variable: engine <chr>

Note que ao juntar todas as colunas de ambos os tibbles, dplyr acrescenta um sufixo à segunda variável year.

3ª forma) by = c("var1" = "var3"): um vetor de caracteres com nomes: . Isto vai fazer o matching da variável var1 na tabela x com a variável var3 na tabela y. As variáveis da tabela de origem x serão usadas no output.

Cada voo tem uma origem e um aeroporto de destino. Então precisamos especificar em qual dessas variáveis do dataset flight queremos fazer o matching com a coluna faa do dataset airports.

flights2 %>% left_join(airports, c("dest" = "faa"))

## # A tibble: 336,776 × 15
##     year month   day  hour origin dest  tailnum carrier name                   lat   lon   alt    tz dst   tzone
##    <int> <int> <int> <dbl> <chr>  <chr> <chr>   <chr>   <chr>                <dbl> <dbl> <dbl> <dbl> <chr> <chr>
##  1  2013     1     1     5 EWR    IAH   N14228  UA      George Bush Interco…  30.0 -95.3    97    -6 A     Amer…
##  2  2013     1     1     5 LGA    IAH   N24211  UA      George Bush Interco…  30.0 -95.3    97    -6 A     Amer…
##  3  2013     1     1     5 JFK    MIA   N619AA  AA      Miami Intl            25.8 -80.3     8    -5 A     Amer…
##  4  2013     1     1     5 JFK    BQN   N804JB  B6      <NA>                  NA    NA      NA    NA <NA>  <NA> 
##  5  2013     1     1     6 LGA    ATL   N668DN  DL      Hartsfield Jackson …  33.6 -84.4  1026    -5 A     Amer…
##  6  2013     1     1     5 EWR    ORD   N39463  UA      Chicago Ohare Intl    42.0 -87.9   668    -6 A     Amer…
##  7  2013     1     1     6 EWR    FLL   N516JB  B6      Fort Lauderdale Hol…  26.1 -80.2     9    -5 A     Amer…
##  8  2013     1     1     6 LGA    IAD   N829AS  EV      Washington Dulles I…  38.9 -77.5   313    -5 A     Amer…
##  9  2013     1     1     6 JFK    MCO   N593JB  B6      Orlando Intl          28.4 -81.3    96    -5 A     Amer…
## 10  2013     1     1     6 LGA    ORD   N3ALAA  AA      Chicago Ohare Intl    42.0 -87.9   668    -6 A     Amer…
## # ℹ 336,766 more rows

flights2 %>% left_join(airports, c("origin" = "faa"))

## # A tibble: 336,776 × 15
##     year month   day  hour origin dest  tailnum carrier name                  lat   lon   alt    tz dst   tzone 
##    <int> <int> <int> <dbl> <chr>  <chr> <chr>   <chr>   <chr>               <dbl> <dbl> <dbl> <dbl> <chr> <chr> 
##  1  2013     1     1     5 EWR    IAH   N14228  UA      Newark Liberty Intl  40.7 -74.2    18    -5 A     Ameri…
##  2  2013     1     1     5 LGA    IAH   N24211  UA      La Guardia           40.8 -73.9    22    -5 A     Ameri…
##  3  2013     1     1     5 JFK    MIA   N619AA  AA      John F Kennedy Intl  40.6 -73.8    13    -5 A     Ameri…
##  4  2013     1     1     5 JFK    BQN   N804JB  B6      John F Kennedy Intl  40.6 -73.8    13    -5 A     Ameri…
##  5  2013     1     1     6 LGA    ATL   N668DN  DL      La Guardia           40.8 -73.9    22    -5 A     Ameri…
##  6  2013     1     1     5 EWR    ORD   N39463  UA      Newark Liberty Intl  40.7 -74.2    18    -5 A     Ameri…
##  7  2013     1     1     6 EWR    FLL   N516JB  B6      Newark Liberty Intl  40.7 -74.2    18    -5 A     Ameri…
##  8  2013     1     1     6 LGA    IAD   N829AS  EV      La Guardia           40.8 -73.9    22    -5 A     Ameri…
##  9  2013     1     1     6 JFK    MCO   N593JB  B6      John F Kennedy Intl  40.6 -73.8    13    -5 A     Ameri…
## 10  2013     1     1     6 LGA    ORD   N3ALAA  AA      La Guardia           40.8 -73.9    22    -5 A     Ameri…
## # ℹ 336,766 more rows
…
3.2.2 Filtering joins

Filtering joins “casam” observações da mesma forma que os mutating joins, mas afetam as próprias observações e não as variáveis. Existem dois tipos de filtering joins:

semi_join() MANTÉM todas as observações em x que possuem correspondência em y;

anti_join() RETIRA todas as observações em x que possuem correspondência em y.

Esses joins são muito úteis para identificar “descasamentos” entre tabelas. Por exemplos, há diversos voos no dataset flights que não possuem correspondências com relação ao tailnum no dataset planes:

flights %>% 
  anti_join(planes, by = "tailnum") %>% 
  count(tailnum, sort = TRUE)

## # A tibble: 722 × 2
##    tailnum     n
##    <chr>   <int>
##  1 <NA>     2512
##  2 N725MQ    575
##  3 N722MQ    513
##  4 N723MQ    507
##  5 N713MQ    483
##  6 N735MQ    396
##  7 N0EGMQ    371
##  8 N534MQ    364
##  9 N542MQ    363
## 10 N531MQ    349
## # ℹ 712 more rows
…
3.3.2.2.4 Adicionando dados ao mapa

Normalmente, ao fazermos análises geográficas, nosso objetivo é representar algum fênomeno que ocorre no território, como por exemplo o comportamento da taxa de desemprego por UF. Normalmente esses dados vem de uma outra fonte, ou seja, estão em outra base de dados que precisa ser “juntada” ao nosso dataframe de shapefile.

Aqui será muito útil o conhecimento sobre Two table verbs e as funções de join, porque teremos que juntar o dataset que possui os dados do fenômeno que desejamos tratar separado por UF com os dados vetoriais/geométricos de plotagem para cada UF também.

Faça a leitura da incidência da taxa de desemprego por UF no Brasil para o ano de 2007 conforme o código abaixo:

library(readr)

tb_desemp_uf <- read_csv2(file="https://raw.githubusercontent.com/allanvc/book_IADR-T/master/datasets/tx_desemp_uf2007.csv")

tb_desemp_uf

## # A tibble: 27 × 4
##    UF    Nome             CO_UNID_GEO Taxa_desemp
##    <chr> <chr>                  <dbl>       <dbl>
##  1 AC    Acre                       1         5.8
##  2 AL    Alagoas                    2         8.4
##  3 AM    Amazonas                   1        12.2
##  4 AP    Amapá                      1        16.3
##  5 BA    Bahia                      2        10.4
##  6 CE    Ceará                      2         7.9
##  7 DF    Distrito Federal           5        11.9
##  8 ES    Espírito Santo             3        10.8
##  9 GO    Goiás                      5         8.2
## 10 MA    Maranhão                   2         8.3
## # ℹ 17 more rows
…
3.3.2.2.6 Acrescentando mais dados ao mapa

Com tmap, podemos acrescentar mais uma dimensão de dados ao nosso mapa, a partir de outro dataset. Imagine, por exemplo, que desejássemos plotar, além da taxa de desemprego, o % de crescimento do PIB no ano de 2007. Isso, forneceria uma melhor compreensão sobre a situação da economia de cada estado naquele ano.

Primeiro vamos ler o dataset cresc_PIB_uf2007.csv, que estão disponíveis no repositório da apostila:

tb_cresc_PIB_uf2007 <- read_csv2(file="https://raw.githubusercontent.com/allanvc/book_IADR-T/master/datasets/cresc_PIB_uf2007.csv")

tb_cresc_PIB_uf2007

## # A tibble: 27 × 2
##    UF                  var_PIB2007
##    <chr>                     <dbl>
##  1  Espírito Santo             7.8
##  2  Pará                       2.2
##  3  Rondônia                   5.2
##  4  Mato Grosso do Sul         7  
##  5  Mato Grosso               11.3
##  6  Pernambuco                 5.4
##  7  Piauí                      2  
##  8  Sergipe                    6.2
##  9  Ceará                      3.3
## 10  Goiás                      5.5
## # ℹ 17 more rows
…
